…
#宽数据转为长数据
family_data <- family_data %>%
  pivot_longer(!Family, names_to = "Sample", values_to = "value")

head(family_data)
# A tibble: 1,278 x 3
   Family           Sample   value
   <chr>            <chr>    <dbl>
 1 Acetobacteraceae Bd-1-1 0.0224 
 2 Acetobacteraceae Bd-1-2 0.0337 
 3 Acetobacteraceae Bd-1-3 0.0398 
 4 Acetobacteraceae Bd-1-4 0.0563 
 5 Acetobacteraceae Bd-1-5 0.114  
 6 Acetobacteraceae Bd-1-6 0.0777 
 7 Acetobacteraceae Bd-2-1 0.00396
 8 Acetobacteraceae Bd-2-2 0.0648 
 9 Acetobacteraceae Bd-2-3 0.0223 
10 Acetobacteraceae Bd-2-4 0.00813
# ... with 1,268 more rows
```
…
##### 3.根据Sample列生成新列

```
family_data <- family_data %>% 
  mutate(Group = case_when(
    startsWith(Sample, "Bd-1") ~ "First ",
    startsWith(Sample, "Bd-2") ~ "Second ",
    startsWith(Sample, "Bd-3") ~ "Third "),
    num = case_when(
      startsWith(Sample, "Bd-1") ~ 1,
      startsWith(Sample, "Bd-2") ~ 2,
      startsWith(Sample, "Bd-3") ~ 3))

head(family_data)
# A tibble: 1,278 x 5
   Family           Sample   value Group           num
   <chr>            <chr>    <dbl> <chr>         <dbl>
 1 Acetobacteraceae Bd-1-1 0.0224  First       1
 2 Acetobacteraceae Bd-1-2 0.0337  First       1
 3 Acetobacteraceae Bd-1-3 0.0398  First       1
 4 Acetobacteraceae Bd-1-4 0.0563  First       1
 5 Acetobacteraceae Bd-1-5 0.114   First       1
 6 Acetobacteraceae Bd-1-6 0.0777  First       1
 7 Acetobacteraceae Bd-2-1 0.00396 Second      2
 8 Acetobacteraceae Bd-2-2 0.0648  Second      2
 9 Acetobacteraceae Bd-2-3 0.0223  Second      2
10 Acetobacteraceae Bd-2-4 0.00813 Second      2
# ... with 1,268 more rows
```
…
